{
	"homePhoto" : {"large": "http://test42p.s3-website-us-west-2.amazonaws.com/images/502506/GestaltHaus-M.JPG"},
	"beersPhoto" : {"large": "http://test42p.s3-website-us-west-2.amazonaws.com/images/502512/IMG_0140-M.JPG"},
	"foodPhoto" : {"large": "http://test42p.s3-website-us-west-2.amazonaws.com/images/502508/IMG_0096-M.JPG"},
	"googleMap" : "https://www.google.com/maps/embed?pb=!1m14!1m8!1m3!1d3144.6607702785404!2d-122.59023584999997!3d37.985045299999996!3m2!1i1024!2i768!4f13.1!3m3!1m2!1s0x0%3A0x4968da0eaeed549!2s!5e0!3m2!1sen!2sus!4v1387914238063",
	"yelpBadge" : "http://www.yelp.com/blogbadgemap?v=2&amp;userid=cuJ94vl0yDU87uV5fVIavA&amp;width=200&amp;height=295&amp;uicolor=C41200&amp;textcolor=FFFFFF&amp;type=latest&amp;speed=5",
	"coupon" : "12345",
	"name" : "Gestalt Haus",
	"description" : "Beers, brats, and bikes.  And board games too.",
	"logoUrl" : {"small": "http://test42p.s3-website-us-west-2.amazonaws.com/c761a4f2-30c2-4dab-8681-cb0bdfd98cf9_logo.png"},
	"video" : "vHRSOc6GtTk",
	
	"beers" : [
		{"name" : "Drake's IPA", "logo": "http://brewpublic.com/wp-content/uploads/2012/08/Drakes-IPA.png", "abv": "7", "ibu": "65"},
		{"name" : "Jamaican Red Ale", "logo": "http://www.atlantacuisine.com/wp-content/uploads/2011/04/JamaicaRedAle275.jpg", "abv": "6.5", "ibu": "45.3"} 
	]
}