{
  "template": {
    "urlBase": "capsule.jsp?contentId\u003dpv504122",
    "htmlInclude": "http://dlpky0v0xnyq9.cloudfront.net/templates/",
    "templateInclude": "http://dlpky0v0xnyq9.cloudfront.net/templates/",
    "inEditMode": false
  },
  "user": {
    "isSignedIn": false,
    "hasEditRight": "false",
    "fullname": "Anonymous"
  },
  "googleAnalyticsId": "UA-34391164-1",
  "brand": {
    "name": "dev@clariontechnologies.co.in",
    "id": "55667",
    "logoURL": "",
    "googleAnalyticsId": "UA-34391164-1"
  },
  "contentId": "pv504122",
  "logo": {
    "aspectRatio": "wide"
  },
  "description": "",
  "streamwize": {
    "thumbnail": "http://dlpky0v0xnyq9.cloudfront.net/images/503584/7005516b-7ab5-4060-93b4-371387e630cb_bike1-S.jpg",
    "contentRef": "pv504122",
    "lastUpdated": "13-Mar-2014",
    "caption": "leftMenuNewSkv3",
    "contentType": "clarion.leftMenuNewSkv3",
    "version": "3"
  },
  "pages": [
    {
      "page": {
        "streamwize": {
          "thumbnail": "http://dlpky0v0xnyq9.cloudfront.net/images/503584/7005516b-7ab5-4060-93b4-371387e630cb_bike1-S.jpg",
          "contentRef": "pv503584",
          "lastUpdated": "26-Feb-2014",
          "caption": "bike1",
          "contentType": "ClarionImage1",
          "version": "1"
        },
        "image": {
          "tiny": "http://dlpky0v0xnyq9.cloudfront.net/images/503584/7005516b-7ab5-4060-93b4-371387e630cb_bike1-T.jpg",
          "original": "http://dlpky0v0xnyq9.cloudfront.net/images/503584/7005516b-7ab5-4060-93b4-371387e630cb_bike1.jpg",
          "aspectRatio": "wide",
          "small": "http://dlpky0v0xnyq9.cloudfront.net/images/503584/7005516b-7ab5-4060-93b4-371387e630cb_bike1-S.jpg",
          "medium": "http://dlpky0v0xnyq9.cloudfront.net/images/503584/7005516b-7ab5-4060-93b4-371387e630cb_bike1-M.jpg",
          "large": "http://dlpky0v0xnyq9.cloudfront.net/images/503584/7005516b-7ab5-4060-93b4-371387e630cb_bike1-L.jpg"
        },
        "caption": "wddwq",
        "credit": "efwfwef",
        "id": "503584"
      },
      "name": "Yamaha R6 Sports White Bike"
    },
    {
      "page": {
        "streamwize": {
          "thumbnail": "http://dlpky0v0xnyq9.cloudfront.net/images/503585/fd8d8ddd-7b8d-4067-8023-837d0c4e53e4_bike3-S.jpg",
          "contentRef": "pv503585",
          "lastUpdated": "26-Feb-2014",
          "caption": "",
          "contentType": "ClarionImage2",
          "version": "1"
        },
        "image": {
          "tiny": "http://dlpky0v0xnyq9.cloudfront.net/images/503585/fd8d8ddd-7b8d-4067-8023-837d0c4e53e4_bike3-T.jpg",
          "original": "http://dlpky0v0xnyq9.cloudfront.net/images/503585/fd8d8ddd-7b8d-4067-8023-837d0c4e53e4_bike3.jpg",
          "aspectRatio": "wide",
          "small": "http://dlpky0v0xnyq9.cloudfront.net/images/503585/fd8d8ddd-7b8d-4067-8023-837d0c4e53e4_bike3-S.jpg",
          "medium": "http://dlpky0v0xnyq9.cloudfront.net/images/503585/fd8d8ddd-7b8d-4067-8023-837d0c4e53e4_bike3-M.jpg",
          "large": "http://dlpky0v0xnyq9.cloudfront.net/images/503585/fd8d8ddd-7b8d-4067-8023-837d0c4e53e4_bike3-L.jpg"
        },
        "caption": "bike2",
        "credit": "Black bike",
        "id": "503585"
      },
      "name": "Yamaha R6 Sports New Black Bike"
    },
    {
      "page": {
        "bottomImage": {
          "tiny": "http://dlpky0v0xnyq9.cloudfront.net/images/503366/b899db47-deaa-47d9-b00e-fcab62ed471a_images1-T.jpg",
          "original": "http://dlpky0v0xnyq9.cloudfront.net/images/503366/b899db47-deaa-47d9-b00e-fcab62ed471a_images1.jpg",
          "aspectRatio": "wide",
          "small": "http://dlpky0v0xnyq9.cloudfront.net/images/503366/b899db47-deaa-47d9-b00e-fcab62ed471a_images1-S.jpg",
          "medium": "http://dlpky0v0xnyq9.cloudfront.net/images/503366/b899db47-deaa-47d9-b00e-fcab62ed471a_images1-M.jpg",
          "large": "http://dlpky0v0xnyq9.cloudfront.net/images/503366/b899db47-deaa-47d9-b00e-fcab62ed471a_images1-L.jpg"
        },
        "twitterCode": "",
        "streamwize": {
          "thumbnail": "http://dlpky0v0xnyq9.cloudfront.net/images/503366/7396c291-d244-46ef-b802-e0412835d42b_images1-S.jpg",
          "contentRef": "pv503366",
          "lastUpdated": "21-Feb-2014",
          "caption": "",
          "contentType": "Car",
          "version": "3"
        },
        "caption": "My New car",
        "topImage": {
          "tiny": "http://dlpky0v0xnyq9.cloudfront.net/images/503366/7396c291-d244-46ef-b802-e0412835d42b_images1-T.jpg",
          "original": "http://dlpky0v0xnyq9.cloudfront.net/images/503366/7396c291-d244-46ef-b802-e0412835d42b_images1.jpg",
          "aspectRatio": "wide",
          "small": "http://dlpky0v0xnyq9.cloudfront.net/images/503366/7396c291-d244-46ef-b802-e0412835d42b_images1-S.jpg",
          "medium": "http://dlpky0v0xnyq9.cloudfront.net/images/503366/7396c291-d244-46ef-b802-e0412835d42b_images1-M.jpg",
          "large": "http://dlpky0v0xnyq9.cloudfront.net/images/503366/7396c291-d244-46ef-b802-e0412835d42b_images1-L.jpg"
        },
        "id": "503366"
      },
      "name": "Designer Story: New Car Lunched in Indi"
    },
    {
      "page": {
        "streamwize": {
          "thumbnail": "http://dlpky0v0xnyq9.cloudfront.net/images/503593/b7d4cb7e-2cf6-4c72-be4d-c7311ce624d7_car-S.jpg",
          "contentRef": "pv503593",
          "lastUpdated": "26-Feb-2014",
          "caption": "",
          "contentType": "CapzulFour",
          "version": "1"
        },
        "image": {
          "tiny": "http://dlpky0v0xnyq9.cloudfront.net/images/503593/b7d4cb7e-2cf6-4c72-be4d-c7311ce624d7_car-T.jpg",
          "original": "http://dlpky0v0xnyq9.cloudfront.net/images/503593/b7d4cb7e-2cf6-4c72-be4d-c7311ce624d7_car.jpg",
          "aspectRatio": "wide",
          "small": "http://dlpky0v0xnyq9.cloudfront.net/images/503593/b7d4cb7e-2cf6-4c72-be4d-c7311ce624d7_car-S.jpg",
          "medium": "http://dlpky0v0xnyq9.cloudfront.net/images/503593/b7d4cb7e-2cf6-4c72-be4d-c7311ce624d7_car-M.jpg",
          "large": "http://dlpky0v0xnyq9.cloudfront.net/images/503593/b7d4cb7e-2cf6-4c72-be4d-c7311ce624d7_car-L.jpg"
        },
        "caption": "Car",
        "credit": "",
        "id": "503593"
      },
      "name": "Designer Story: New Car"
    }
  ],
  "name": "leftMenuNewSkv3",
  "id": "504122"
}