{
  "template": {
    "urlBase": "capsule.jsp?contentId\u003dpv504208",
    "htmlInclude": "http://dlpky0v0xnyq9.cloudfront.net/templates/",
    "templateInclude": "http://dlpky0v0xnyq9.cloudfront.net/templates/",
    "inEditMode": false
  },
  "user": {
    "isSignedIn": false,
    "hasEditRight": "false",
    "fullname": "Anonymous"
  },
  "googleAnalyticsId": "UA-34391164-1",
  "brand": {
    "name": "dev@clariontechnologies.co.in",
    "id": "55667",
    "logoURL": "",
    "googleAnalyticsId": "UA-34391164-1"
  },
  "contentId": "pv504208",
  "fit": "fill",
  "streamwize": {
    "thumbnail": "http://dlpky0v0xnyq9.cloudfront.net/images/504208/b4bb17ed-c9ed-4638-b8a1-fe076de39481_200_500-S.png",
    "contentRef": "pv504208",
    "lastUpdated": "18-Mar-2014",
    "caption": "Anish testings",
    "contentType": "clarion.BannerSliderResponsiveAV12",
    "version": "4"
  },
  "name": "Anish testings",
  "images": [
    {
      "imagename": {
        "tiny": "http://dlpky0v0xnyq9.cloudfront.net/images/504208/b4bb17ed-c9ed-4638-b8a1-fe076de39481_200_500-T.png",
        "original": "http://dlpky0v0xnyq9.cloudfront.net/images/504208/b4bb17ed-c9ed-4638-b8a1-fe076de39481_200_500.png",
        "aspectRatio": "tall",
        "small": "http://dlpky0v0xnyq9.cloudfront.net/images/504208/b4bb17ed-c9ed-4638-b8a1-fe076de39481_200_500-S.png",
        "medium": "http://dlpky0v0xnyq9.cloudfront.net/images/504208/b4bb17ed-c9ed-4638-b8a1-fe076de39481_200_500-M.png",
        "large": "http://dlpky0v0xnyq9.cloudfront.net/images/504208/b4bb17ed-c9ed-4638-b8a1-fe076de39481_200_500-L.png"
      }
    },
    {
      "imagename": {
        "tiny": "http://dlpky0v0xnyq9.cloudfront.net/images/504208/dbef2231-5460-4c2b-b187-47f58754760e_500_200-T.png",
        "original": "http://dlpky0v0xnyq9.cloudfront.net/images/504208/dbef2231-5460-4c2b-b187-47f58754760e_500_200.png",
        "aspectRatio": "wide",
        "small": "http://dlpky0v0xnyq9.cloudfront.net/images/504208/dbef2231-5460-4c2b-b187-47f58754760e_500_200-S.png",
        "medium": "http://dlpky0v0xnyq9.cloudfront.net/images/504208/dbef2231-5460-4c2b-b187-47f58754760e_500_200-M.png",
        "large": "http://dlpky0v0xnyq9.cloudfront.net/images/504208/dbef2231-5460-4c2b-b187-47f58754760e_500_200-L.png"
      }
    },
    {
      "imagename": {
        "tiny": "http://dlpky0v0xnyq9.cloudfront.net/images/504208/a3ab8b26-28ad-450c-bcc7-1467f5177582_889-T.png",
        "original": "http://dlpky0v0xnyq9.cloudfront.net/images/504208/a3ab8b26-28ad-450c-bcc7-1467f5177582_889.png",
        "aspectRatio": "wide",
        "small": "http://dlpky0v0xnyq9.cloudfront.net/images/504208/a3ab8b26-28ad-450c-bcc7-1467f5177582_889-S.png",
        "medium": "http://dlpky0v0xnyq9.cloudfront.net/images/504208/a3ab8b26-28ad-450c-bcc7-1467f5177582_889-M.png",
        "large": "http://dlpky0v0xnyq9.cloudfront.net/images/504208/a3ab8b26-28ad-450c-bcc7-1467f5177582_889-L.png"
      }
    },
    {
      "imagename": {
        "tiny": "http://dlpky0v0xnyq9.cloudfront.net/images/504208/ccd690d6-f396-423d-99b6-f8bb594881d8_750-T.png",
        "original": "http://dlpky0v0xnyq9.cloudfront.net/images/504208/ccd690d6-f396-423d-99b6-f8bb594881d8_750.png",
        "aspectRatio": "wide",
        "small": "http://dlpky0v0xnyq9.cloudfront.net/images/504208/ccd690d6-f396-423d-99b6-f8bb594881d8_750-S.png",
        "medium": "http://dlpky0v0xnyq9.cloudfront.net/images/504208/ccd690d6-f396-423d-99b6-f8bb594881d8_750-M.png",
        "large": "http://dlpky0v0xnyq9.cloudfront.net/images/504208/ccd690d6-f396-423d-99b6-f8bb594881d8_750-L.png"
      }
    },
    {
      "imagename": {
        "tiny": "http://dlpky0v0xnyq9.cloudfront.net/images/504208/22a39ac1-79ca-4392-9e8e-f4c0e0a1ff40_750-T.jpg",
        "original": "http://dlpky0v0xnyq9.cloudfront.net/images/504208/22a39ac1-79ca-4392-9e8e-f4c0e0a1ff40_750.jpg",
        "aspectRatio": "wide",
        "small": "http://dlpky0v0xnyq9.cloudfront.net/images/504208/22a39ac1-79ca-4392-9e8e-f4c0e0a1ff40_750-S.jpg",
        "medium": "http://dlpky0v0xnyq9.cloudfront.net/images/504208/22a39ac1-79ca-4392-9e8e-f4c0e0a1ff40_750-M.jpg",
        "large": "http://dlpky0v0xnyq9.cloudfront.net/images/504208/22a39ac1-79ca-4392-9e8e-f4c0e0a1ff40_750-L.jpg"
      }
    },
    {
      "imagename": {
        "tiny": "http://dlpky0v0xnyq9.cloudfront.net/images/504208/69ac76ad-bb2c-4a68-9b17-1861ec523d07_camera-T.jpg",
        "original": "http://dlpky0v0xnyq9.cloudfront.net/images/504208/69ac76ad-bb2c-4a68-9b17-1861ec523d07_camera.jpg",
        "aspectRatio": "wide",
        "small": "http://dlpky0v0xnyq9.cloudfront.net/images/504208/69ac76ad-bb2c-4a68-9b17-1861ec523d07_camera-S.jpg",
        "medium": "http://dlpky0v0xnyq9.cloudfront.net/images/504208/69ac76ad-bb2c-4a68-9b17-1861ec523d07_camera-M.jpg",
        "large": "http://dlpky0v0xnyq9.cloudfront.net/images/504208/69ac76ad-bb2c-4a68-9b17-1861ec523d07_camera-L.jpg"
      }
    }
  ],
  "id": "504208"
}